<?xml version="1.0" encoding="utf-8"?>
<!-- Generator: Adobe Illustrator 18.1.0, SVG Export Plug-In . SVG Version: 6.00 Build 0)  -->
<!DOCTYPE svg PUBLIC "-//W3C//DTD SVG 1.1//EN" "http://www.w3.org/Graphics/SVG/1.1/DTD/svg11.dtd">
<svg version="1.1" id="Layer_1" xmlns="http://www.w3.org/2000/svg" xmlns:xlink="http://www.w3.org/1999/xlink" x="0px" y="0px"
	 viewBox="0 0 166.8 165" enable-background="new 0 0 166.8 165" xml:space="preserve">
<path fill="#464646" d="M116.3,22.4l-19.5-7.6H67l-19.5,7.6c-17.1,22.4-26,77.4-26,77.4l16.9,1.9c3-18.1,13.8-42.8,13.8-42.8
	l-0.9,53.5c0,0,17.8,2.3,24.6,2.3c1.2,0,2.3,0,3.3,0c4.2,0,5.6,0,5.6,0c0.9,0,2,0,3.3,0c6.8,0,24.6-2.3,24.6-2.3l-0.9-53.5
	c0,0,0.2,0.5,0.7,1.5L124,35.7C121.7,30.6,119.1,26,116.3,22.4z"/>
<rect x="89.3" y="64" fill="#635B63" width="23.1" height="32.2"/>
<polygon fill="#C8C8C8" points="127.6,98.1 98,98.1 97.1,67.6 92.5,60.5 122.3,60.5 127.1,67.8 "/>
<path fill="#464646" d="M142.3,99.8c0,0-6.2-38.4-18.2-64.1l-11.8,24.8c2.4,5.7,10.6,25.8,13.2,41.2L142.3,99.8z"/>
<g>
	<path fill="#C8C8C8" d="M99.5,102.3c-0.6,0-1-0.4-1-1v-4.8c0-0.6,0.4-1,1-1c0.6,0,1,0.4,1,1v4.8
		C100.5,101.8,100.1,102.3,99.5,102.3z"/>
	<path fill="#C8C8C8" d="M104.2,102.3c-0.6,0-1-0.4-1-1v-4.8c0-0.6,0.4-1,1-1c0.6,0,1,0.4,1,1v4.8
		C105.2,101.8,104.7,102.3,104.2,102.3z"/>
	<path fill="#C8C8C8" d="M108.9,102.3c-0.6,0-1-0.4-1-1v-4.8c0-0.6,0.4-1,1-1s1,0.4,1,1v4.8C109.9,101.8,109.4,102.3,108.9,102.3z"
		/>
	<path fill="#C8C8C8" d="M113.5,102.3c-0.6,0-1-0.4-1-1v-4.8c0-0.6,0.4-1,1-1c0.6,0,1,0.4,1,1v4.8
		C114.5,101.8,114.1,102.3,113.5,102.3z"/>
	<path fill="#C8C8C8" d="M118.2,102.3c-0.6,0-1-0.4-1-1v-4.8c0-0.6,0.4-1,1-1c0.6,0,1,0.4,1,1v4.8
		C119.2,101.8,118.7,102.3,118.2,102.3z"/>
	<path fill="#C8C8C8" d="M122.9,102.3c-0.6,0-1-0.4-1-1v-4.8c0-0.6,0.4-1,1-1s1,0.4,1,1v4.8C123.9,101.8,123.4,102.3,122.9,102.3z"
		/>
</g>
<g>
	<path fill="#C8C8C8" d="M97.7,98.1c-1.3,0-2.4-1.1-2.4-2.4V68c0-1.5-1.2-2.8-2.8-2.8c-1.5,0-2.8,1.2-2.8,2.8v27.7
		c0,1.3-1.1,2.4-2.4,2.4S85,97,85,95.7V68c0-4.2,3.4-7.6,7.6-7.6s7.6,3.4,7.6,7.6v27.7C100.1,97,99,98.1,97.7,98.1z"/>
</g>
</svg>
