<?xml version="1.0" encoding="utf-8"?>
<!-- Generator: Adobe Illustrator 18.1.0, SVG Export Plug-In . SVG Version: 6.00 Build 0)  -->
<!DOCTYPE svg PUBLIC "-//W3C//DTD SVG 1.1//EN" "http://www.w3.org/Graphics/SVG/1.1/DTD/svg11.dtd">
<svg version="1.1" id="scene" xmlns="http://www.w3.org/2000/svg" xmlns:xlink="http://www.w3.org/1999/xlink" x="0px" y="0px"
	 viewBox="0 0 2520 1680" enable-background="new 0 0 2520 1680" xml:space="preserve">
<g id="area">
  <rect x="0" y="0" opacity="1.000000e-02" fill="none" stroke="#FFFFFF" stroke-miterlimit="10" width="2520" height="1680"/>
</g>
<g id="popups">
    <g popup='true' data-popup-id="highgear">
      <circle fill="#F15A29" cx="1262.6" cy="1315.5" r="29"/>
      <g>
        <path fill="#FFFFFF" d="M1260.5,1317.6h-4.7c-1,0-1.4,0-1.8-0.3c-0.6-0.3-1-1-1-1.7s0.4-1.4,1-1.7c0.4-0.3,0.8-0.3,1.8-0.3h4.7
          v-4.7c0-1,0-1.4,0.3-1.8c0.3-0.6,1-1,1.7-1c0.7,0,1.4,0.4,1.7,1c0.3,0.4,0.3,0.8,0.3,1.8v4.7h4.7c1,0,1.4,0,1.8,0.3
          c0.6,0.3,1,1,1,1.7s-0.4,1.4-1,1.7c-0.4,0.3-0.8,0.3-1.8,0.3h-4.6v4.7c0,1,0,1.4-0.3,1.8c-0.3,0.6-1,1-1.7,1s-1.4-0.4-1.7-1
          c-0.3-0.4-0.3-0.8-0.3-1.8v-4.7H1260.5z"/>
      </g>
    </g>
    <g popup='true' data-popup-id="stuck">
      <circle fill="#F15A29" cx="768.6" cy="742.7" r="29"/>
      <g>
        <path fill="#FFFFFF" d="M766.6,744.8h-4.7c-1,0-1.4,0-1.8-0.3c-0.6-0.3-1-1-1-1.7c0-0.7,0.4-1.4,1-1.7c0.4-0.3,0.8-0.3,1.8-0.3
          h4.7v-4.7c0-1,0-1.4,0.3-1.8c0.3-0.6,1-1,1.7-1c0.7,0,1.4,0.4,1.7,1c0.3,0.4,0.3,0.8,0.3,1.8v4.7h4.7c1,0,1.4,0,1.8,0.3
          c0.6,0.3,1,1,1,1.7c0,0.7-0.4,1.4-1,1.7c-0.4,0.3-0.8,0.3-1.8,0.3h-4.7v4.7c0,1,0,1.4-0.3,1.8c-0.3,0.6-1,1-1.7,1
          c-0.7,0-1.4-0.4-1.7-1c-0.3-0.4-0.3-0.8-0.3-1.8V744.8z"/>
      </g>
    </g>
    <g popup='true' data-popup-id="nosharpturns">
      <circle fill="#F15A29" cx="1950.4" cy="623" r="29"/>
      <g>
        <path fill="#FFFFFF" d="M1948.5,625.1h-4.7c-1,0-1.4,0-1.8-0.3c-0.6-0.3-1-1-1-1.7c0-0.7,0.4-1.4,1-1.7c0.4-0.3,0.8-0.3,1.8-0.3
          h4.7v-4.7c0-1,0-1.4,0.3-1.8c0.3-0.6,1-1,1.7-1c0.7,0,1.4,0.4,1.7,1c0.3,0.4,0.3,0.8,0.3,1.8v4.7h4.7c1,0,1.4,0,1.8,0.3
          c0.6,0.3,1,1,1,1.7c0,0.7-0.4,1.4-1,1.7c-0.4,0.3-0.8,0.3-1.8,0.3h-4.7v4.7c0,1,0,1.4-0.3,1.8c-0.3,0.6-1,1-1.7,1
          c-0.7,0-1.4-0.4-1.7-1c-0.3-0.4-0.3-0.8-0.3-1.8V625.1z"/>
      </g>
    </g>
    <g popup='true' data-popup-id="leavedistance">
      <circle fill="#F15A29" cx="1282.9" cy="806.4" r="29"/>
      <g>
        <path fill="#FFFFFF" d="M1280.8,808.5h-4.7c-1,0-1.4,0-1.8-0.3c-0.6-0.3-1-1-1-1.7s0.4-1.4,1-1.7c0.4-0.3,0.8-0.3,1.8-0.3h4.7
          v-4.7c0-1,0-1.4,0.3-1.8c0.3-0.6,1-1,1.7-1c0.7,0,1.4,0.4,1.7,1c0.3,0.4,0.3,0.8,0.3,1.8v4.7h4.7c1,0,1.4,0,1.8,0.3
          c0.6,0.3,1,1,1,1.7s-0.4,1.4-1,1.7c-0.4,0.3-0.8,0.3-1.8,0.3h-4.7v4.7c0,1,0,1.4-0.3,1.8c-0.3,0.6-1,1-1.7,1
          c-0.7,0-1.4-0.4-1.7-1c-0.3-0.4-0.3-0.8-0.3-1.8V808.5z"/>
      </g>
    </g>
    <g popup='true' data-popup-id="avoidsuddenbraking">
      <circle fill="#F15A29" cx="1620.6" cy="1325" r="29"/>
      <g>
        <path fill="#FFFFFF" d="M1618.7,1327.1h-4.7c-1,0-1.4,0-1.8-0.3c-0.6-0.3-1-1-1-1.7c0-0.7,0.4-1.4,1-1.7
          c0.4-0.3,0.8-0.3,1.8-0.3h4.7v-4.7c0-1,0-1.4,0.3-1.8c0.3-0.6,1-1,1.7-1s1.4,0.4,1.7,1c0.3,0.4,0.3,0.8,0.3,1.8v4.7h4.7
          c1,0,1.4,0,1.8,0.3c0.6,0.3,1,1,1,1.7c0,0.7-0.4,1.4-1,1.7c-0.4,0.3-0.8,0.3-1.8,0.3h-4.7v4.7c0,1,0,1.4-0.3,1.8
          c-0.3,0.6-1,1-1.7,1s-1.4-0.4-1.7-1c-0.3-0.4-0.3-0.8-0.3-1.8V1327.1z"/>
      </g>
    </g>
</g>
</svg>
